﻿Folio: 1425.1
Fecha: 23/07/2020
Empleado: 90036467 Yorch Aguilar Acosta

0c97593049b5ebc72eb942a2040e9046	impresionsoltraspaso.php
f1f1511324b0b024f4cfe0508c8c7aee	impresionsolregistro.php
ae02be5cf81d8000e4b67ee65fb663fd	clases/CMetodosExpedienteAfiliacion.php
------------------------------------------------------------------------
Folio: 1273.1
Fecha: 20/02/2019
Empleado: 98519671 Michael Magaña

ba9951d3d36a2c9121f1d07d14acbbcc	impresionsolregistro.php
452274ba0b6bc32a56bc84c0cf337511	impresionsoltraspaso.php

------------------------------------------------------------------------
Folio: 444.1
Fecha: 26/12/2019
Empleado: 98545256 Michael Magaña

2ab7c28e5f165ea458dc51abdb9fdfb2	impresionsolregistro.php
c0db5e20b0291c986fd641d488d797ab	impresionsoltraspaso.php
c42746a64bfd8fb8de3aa5165272a324	clases\CMetodosExpedienteAfiliacion.php

------------------------------------------------------------------------
Folio: 1034.1
Fecha: 11/12/2019
Empleado: 98519671 Luis Lugo

ba6af8555cca4463745b1f6e8105472b	impresionsolregistro.php
8be7c3e20b077e4526c8de8865e952a3	impresionsoltraspaso.php

------------------------------------------------------------------------
Folio: 1034.1
Fecha: 02/12/2019
Empleado: 98519671 Luis Lugo

d960391ee09d0bf1f42a48c5aafec069	impresionsolregistro.php
3ad9f6d325d373da121d9e41f3153b95	impresionsoltraspaso.php
6a036840335c76a7ac8e7d52802983fe	clases\CMetodosExpedienteAfiliacion.php

------------------------------------------------------------------------
Folio: 444.1
Fecha: 17/09/2019
Empleado: 98545256 Michael Magaña

2f9a1ad050500598c7bedff604b68e29	impresionsolregistro.php
fee4605dac4f4531f38343562a70dfa8	impresionsoltraspaso.php

------------------------------------------------------------------------
Folio: 893.1
Empleado: Jesus Gabriel
No de Empleado: 97837211
Fecha: 29/08/2019

cca3a510fc8f447f898352646c90029b	impresionsolregistro.php

------------------------------------------------------------------------
Folio: 893.1
Fecha: 23/08/2019
Empleado: 98546953

184dc4651ff66f362c55ca19a9d331cb	impresionsolregistro.php
108bc47e9917c08d9c207eb9cc213af7	impresionsoltraspaso.php

------------------------------------------------------------------------
Folio: 546.1
Fecha: 08/08/2019
Empleado: 99802032

e57a6db4e1e41cf4f430d9d08748aaf6	impresionsolregistro.php
839306e370bcfce6c773c471ab7e2094	impresionsoltraspaso.php

------------------------------------------------------------------------
Folio: 752.1
Fecha: 30/04/2019
Empleado: 96662964

638dcd51ae744e05c744d45b7cbdb1f6	impresionsolregistro.php
baede685c0e82b7bbda97c6e5897024a	impresionsoltraspaso.php

------------------------------------------------------------------------
Folio: 752.1
Fecha: 27/04/2019
Empleado: 96662964 

7df81f6c92c7af576015b92a0f9d2241	impresionsolregistro.php

------------------------------------------------------------------------
Folio: 376
Fecha: 15/05/2018
Empleado: 95029869 

7fc852aee2e93c86ecddb1bccf1bd63a	impresionsolregistro.php

------------------------------------------------------------------------
Folio: 376
Fecha: 15/05/2018
Empleado: 98488678- Omar Enrique Arredondo Meza

3d5ddfe08b4e0d303089e04dac4e5797	impresionsolregistro.php
81223d7b96ea99f90f5d1c821ad84a1d	impresionsoltraspaso.php

------------------------------------------------------------------------
Folio: 376
Fecha: 24/04/2018
Empleado: 98488678- Omar Enrique Arredondo Meza

3d5ddfe08b4e0d303089e04dac4e5797	impresionsolregistro.php
81223d7b96ea99f90f5d1c821ad84a1d	impresionsoltraspaso.php
